FPGA_video_process/Final_work_v7/efinity_project/la0_waveform.vcd
#0 $dumpon
$date today $end
$timescale 1 ns $end
$scope module top $end
$var wire 8 0 rdata_in $end
$var wire 8 1 gdata_in $end
$var wire 8 2 bdata_in $end
$var wire 1 3 rx_vsync $end
$var wire 1 4 rx_de $end
$var wire 1 5 rx_hsync $end
$upscope $end
$enddefinitions $end
#0
$dumpvars
b00000000 0
b00000000 1
b11001111 2
03
14
05
$end
#1
b11010000 2
#3
b11010001 2
#5
b11010010 2
#7
b11010011 2
#9
b11010100 2
#11
b11010101 2
#13
b11010110 2
#15
b11010111 2
#17
b11011000 2
#19
b11011001 2
#21
b11011010 2
#23
b11011011 2
#25
b11011100 2
#27
b11011101 2
#29
b11011110 2
#31
b11011111 2
#33
b11100000 2
#35
b11100001 2
#37
b11100010 2
#39
b11100011 2
#41
b11100100 2
#43
b11100101 2
#45
b11100110 2
#47
b11100111 2
#49
b11101000 2
#51
b11101001 2
#53
b11101010 2
#55
b11101011 2
#57
b11101100 2
#59
b11101101 2
#61
b11101110 2
#63
b11101111 2
#65
b11110000 2
#67
b11110001 2
#69
b11110010 2
#71
b11110011 2
#73
b11110100 2
#75
b11110101 2
#77
b11110110 2
#79
b11110111 2
#81
b11111000 2
#83
b11111001 2
#85
b11111010 2
#87
b11111011 2
#89
b11111100 2
#91
b11111101 2
#93
b11111110 2
#95
b11111111 2
#97
b00000000 2
#99
b00000001 2
#101
b00000010 2
#103
b00000011 2
#105
b00000100 2
#107
b00000101 2
#109
b00000110 2
#111
b00000111 2
#113
b00001000 2
#115
b00001001 2
#117
b00001010 2
#119
b00001011 2
#121
b00001100 2
#123
b00001101 2
#125
b00001110 2
#127
b00001111 2
#129
b00010000 2
#131
b00010001 2
#133
b00010010 2
#135
b00010011 2
#137
b00010100 2
#139
b00010101 2
#141
b00010110 2
#143
b00010111 2
#145
b00011000 2
#147
b00011001 2
#149
b00011010 2
#151
b00011011 2
#153
b00011100 2
#155
b00011101 2
#157
b00011110 2
#159
b00011111 2
#161
b00100000 2
#163
b00100001 2
#165
b00100010 2
#167
b00100011 2
#169
b00100100 2
#171
b00100101 2
#173
b00100110 2
#175
b00100111 2
#177
b00101000 2
#179
b00101001 2
#181
b00101010 2
#183
b00101011 2
#185
b00101100 2
#187
b00101101 2
#189
b00101110 2
#191
b00101111 2
#193
b00110000 2
#195
b00110001 2
#197
b00110010 2
#199
b00110011 2
#201
b00110100 2
#203
b00110101 2
#205
b00110110 2
#207
b00110111 2
#209
b00111000 2
#211
b00111001 2
#213
b00111010 2
#215
b00111011 2
#217
b00111100 2
#219
b00111101 2
#221
b00111110 2
#223
b00111111 2
#225
b01000000 2
#227
b01000001 2
#229
b01000010 2
#231
b01000011 2
#233
b01000100 2
#235
b01000101 2
#237
b01000110 2
#239
b01000111 2
#241
b01001000 2
#243
b01001001 2
#245
b01001010 2
#247
b01001011 2
#249
b01001100 2
#251
b01001101 2
#253
b01001110 2
#255
b01001111 2
#257
b01010000 2
#259
b01010001 2
#261
b01010010 2
#263
b01010011 2
#265
b01010100 2
#267
b01010101 2
#269
b01010110 2
#271
b01010111 2
#273
b01011000 2
#275
b01011001 2
#277
b01011010 2
#279
b01011011 2
#281
b01011100 2
#283
b01011101 2
#285
b01011110 2
#287
b01011111 2
#289
b01100000 2
#291
b01100001 2
#293
b01100010 2
#295
b01100011 2
#297
b01100100 2
#299
b01100101 2
#301
b01100110 2
#303
b01100111 2
#305
b01101000 2
#307
b01101001 2
#309
b01101010 2
#311
b01101011 2
#313
b01101100 2
#315
b01101101 2
#317
b01101110 2
#319
b01101111 2
#321
b01110000 2
#323
b01110001 2
#325
b01110010 2
#327
b01110011 2
#329
b01110100 2
#331
b01110101 2
#333
b01110110 2
#335
b01110111 2
#337
b01111000 2
#339
b01111001 2
#341
b01111010 2
#343
b01111011 2
#345
b01111100 2
#347
b01111101 2
#349
b01111110 2
#351
b01111111 2
#353
b10000000 2
#355
b10000001 2
#357
b10000010 2
#359
b10000011 2
#361
b10000100 2
#363
b10000101 2
#365
b10000110 2
#367
b10000111 2
#369
b10001000 2
#371
b10001001 2
#373
b10001010 2
#375
b10001011 2
#377
b10001100 2
#379
b10001101 2
#381
b10001110 2
#383
b10001111 2
#385
b10010000 2
#387
b10010001 2
#389
b10010010 2
#391
b10010011 2
#393
b10010100 2
#395
b10010101 2
#397
b10010110 2
#399
b10010111 2
#401
b10011000 2
#403
b10011001 2
#405
b10011010 2
#407
b10011011 2
#409
b10011100 2
#411
b10011101 2
#413
b10011110 2
#415
b10011111 2
#417
b10100000 2
#419
b10100001 2
#421
b10100010 2
#423
b10100011 2
#425
b10100100 2
#427
b10100101 2
#429
b10100110 2
#431
b10100111 2
#433
b10101000 2
#435
b10101001 2
#437
b10101010 2
#439
b10101011 2
#441
b10101100 2
#443
b10101101 2
#445
b10101110 2
#447
b10101111 2
#449
b10110000 2
#451
b10110001 2
#453
b10110010 2
#455
b10110011 2
#457
b10110100 2
#459
b10110101 2
#461
b10110110 2
#463
b10110111 2
#465
b10111000 2
#467
b10111001 2
#469
b10111010 2
#471
b10111011 2
#473
b10111100 2
#475
b10111101 2
#477
b10111110 2
#479
b10111111 2
#481
b11000000 2
#483
b11000001 2
#485
b11000010 2
#487
b11000011 2
#489
b11000100 2
#491
b11000101 2
#493
b11000110 2
#495
b11000111 2
#497
b11001000 2
#499
b11001001 2
#501
b11001010 2
#503
b11001011 2
#505
b11001100 2
#507
b11001101 2
#509
b11001110 2
#511
b11001111 2
#513
b11010000 2
#515
b11010001 2
#517
b11010010 2
#519
b11010011 2
#521
b11010100 2
#523
b11010101 2
#525
b11010110 2
#527
b11010111 2
#529
b11011000 2
#531
b11011001 2
#533
b11011010 2
#535
b11011011 2
#537
b11011100 2
#539
b11011101 2
#541
b11011110 2
#543
b11011111 2
#545
b11100000 2
#547
b11100001 2
#549
b11100010 2
#551
b11100011 2
#553
b11100100 2
#555
b11100101 2
#557
b11100110 2
#559
b11100111 2
#561
b11101000 2
#563
b11101001 2
#565
b11101010 2
#567
b11101011 2
#569
b11101100 2
#571
b11101101 2
#573
b11101110 2
#575
b11101111 2
#577
b11110000 2
#579
b11110001 2
#581
b11110010 2
#583
b11110011 2
#585
b11110100 2
#587
b11110101 2
#589
b11110110 2
#591
b11110111 2
#593
b11111000 2
#595
b11111001 2
#597
b11111010 2
#599
b11111011 2
#601
b11111100 2
#603
b11111101 2
#605
b11111110 2
#607
b11111111 2
#609
b00000000 2
#611
b00000001 2
#613
b00000010 2
#615
b00000011 2
#617
b00000100 2
#619
b00000101 2
#621
b00000110 2
#623
b00000111 2
#625
b00001000 2
#627
b00001001 2
#629
b00001010 2
#631
b00001011 2
#633
b00001100 2
#635
b00001101 2
#637
b00001110 2
#639
b00001111 2
#641
b00010000 2
#643
b00010001 2
#645
b00010010 2
#647
b00010011 2
#649
b00010100 2
#651
b00010101 2
#653
b00010110 2
#655
b00010111 2
#657
b00011000 2
#659
b00011001 2
#661
b00011010 2
#663
b00011011 2
#665
b00011100 2
#667
b00011101 2
#669
b00011110 2
#671
b00011111 2
#673
b00100000 2
#675
b00100001 2
#677
b00100010 2
#679
b00100011 2
#681
b00100100 2
#683
b00100101 2
#685
b00100110 2
#687
b00100111 2
#689
b00101000 2
#691
b00101001 2
#693
b00101010 2
#695
b00101011 2
#697
b00101100 2
#699
b00101101 2
#701
b00101110 2
#703
b00101111 2
#705
b00110000 2
#707
b00110001 2
#709
b00110010 2
#711
b00110011 2
#713
b00110100 2
#715
b00110101 2
#717
b00110110 2
#719
b00110111 2
#721
b00111000 2
#723
b00111001 2
#725
b00111010 2
#727
b00111011 2
#729
b00111100 2
#731
b00111101 2
#733
b00111110 2
#735
b00111111 2
#737
b01000000 2
#739
b01000001 2
#741
b01000010 2
#743
b01000011 2
#745
b01000100 2
#747
b01000101 2
#749
b01000110 2
#751
b01000111 2
#753
b01001000 2
#755
b01001001 2
#757
b01001010 2
#759
b01001011 2
#761
b01001100 2
#763
b01001101 2
#765
b01001110 2
#767
b01001111 2
#769
b01010000 2
#771
b01010001 2
#773
b01010010 2
#775
b01010011 2
#777
b01010100 2
#779
b01010101 2
#781
b01010110 2
#783
b01010111 2
#785
b01011000 2
#787
b01011001 2
#789
b01011010 2
#791
b01011011 2
#793
b01011100 2
#795
b01011101 2
#797
b01011110 2
#799
b01011111 2
#801
b01100000 2
#803
b01100001 2
#805
b01100010 2
#807
b01100011 2
#809
b01100100 2
#811
b01100101 2
#813
b01100110 2
#815
b01100111 2
#817
b01101000 2
#819
b01101001 2
#821
b01101010 2
#823
b01101011 2
#825
b01101100 2
#827
b01101101 2
#829
b01101110 2
#831
b01101111 2
#833
b01110000 2
#835
b01110001 2
#837
b01110010 2
#839
b01110011 2
#841
b01110100 2
#843
b01110101 2
#845
b01110110 2
#847
b01110111 2
#849
b01111000 2
#851
b01111001 2
#853
b01111010 2
#855
b01111011 2
#857
b01111100 2
#859
b01111101 2
#861
b01111110 2
#863
b01111111 2
#865
b10000000 2
#867
b10000001 2
#869
b10000010 2
#871
b10000011 2
#873
b10000100 2
#875
b10000101 2
#877
b10000110 2
#879
b10000111 2
#881
b10001000 2
#883
b10001001 2
#885
b10001010 2
#887
b10001011 2
#889
b10001100 2
#891
b10001101 2
#893
b10001110 2
#895
b10001111 2
#897
b10010000 2
#899
b10010001 2
#901
b10010010 2
#903
b10010011 2
#905
b10010100 2
#907
b10010101 2
#909
b10010110 2
#911
b10010111 2
#913
b10011000 2
#915
b10011001 2
#917
b10011010 2
#919
b10011011 2
#921
b10011100 2
#923
b10011101 2
#925
b10011110 2
#927
b10011111 2
#929
b10100000 2
#931
b10100001 2
#933
b10100010 2
#935
b10100011 2
#937
b10100100 2
#939
b10100101 2
#941
b10100110 2
#943
b10100111 2
#945
b10101000 2
#947
b10101001 2
#949
b10101010 2
#951
b10101011 2
#953
b10101100 2
#955
b10101101 2
#957
b10101110 2
#959
b10101111 2
#961
b10110000 2
#963
b10110001 2
#965
b10110010 2
#967
b10110011 2
#969
b10110100 2
#971
b10110101 2
#973
b10110110 2
#975
b10110111 2
#977
b10111000 2
#979
b10111001 2
#981
b10111010 2
#983
b10111011 2
#985
b10111100 2
#987
b10111101 2
#989
b10111110 2
#991
b10111111 2
#993
b11000000 2
#995
b11000001 2
#997
b11000010 2
#999
b11000011 2
#1001
b11000100 2
#1003
b11000101 2
#1005
b11000110 2
#1007
b11000111 2
#1009
b11001000 2
#1011
b11001001 2
#1013
b11001010 2
#1015
b11001011 2
#1017
b11001100 2
#1019
b11001101 2
#1021
b11001110 2
#1023
b11001111 2
#1025
b11010000 2
#1027
b11010001 2
#1029
b11010010 2
#1031
b11010011 2
#1033
b11010100 2
#1035
b11010101 2
#1037
b11010110 2
#1039
b11010111 2
#1041
b11011000 2
#1043
b11011001 2
#1045
b11011010 2
#1047
b11011011 2
#1049
b11011100 2
#1051
b11011101 2
#1053
b11011110 2
#1055
b11011111 2
#1057
b11100000 2
#1059
b11100001 2
#1061
b11100010 2
#1063
b11100011 2
#1065
b11100100 2
#1067
04
#1153
15
#1199
05
#1347
b00100101 2
14
#1349
b00100110 2
#1351
b00100111 2
#1353
b00101000 2
#1355
b00101001 2
#1357
b00101010 2
#1359
b00101011 2
#1361
b00101100 2
#1363
b00101101 2
#1365
b00101110 2
#1367
b00101111 2
#1369
b00110000 2
#1371
b00110001 2
#1373
b00110010 2
#1375
b00110011 2
#1377
b00110100 2
#1379
b00110101 2
#1381
b00110110 2
#1383
b00110111 2
#1385
b00111000 2
#1387
b00111001 2
#1389
b00111010 2
#1391
b00111011 2
#1393
b00111100 2
#1395
b00111101 2
#1397
b00111110 2
#1399
b00111111 2
#1401
b01000000 2
#1403
b01000001 2
#1405
b01000010 2
#1407
b01000011 2
#1409
b01000100 2
#1411
b01000101 2
#1413
b01000110 2
#1415
b01000111 2
#1417
b01001000 2
#1419
b01001001 2
#1421
b01001010 2
#1423
b01001011 2
#1425
b01001100 2
#1427
b01001101 2
#1429
b01001110 2
#1431
b01001111 2
#1433
b01010000 2
#1435
b01010001 2
#1437
b01010010 2
#1439
b01010011 2
#1441
b01010100 2
#1443
b01010101 2
#1445
b01010110 2
#1447
b01010111 2
#1449
b01011000 2
#1451
b01011001 2
#1453
b01011010 2
#1455
b01011011 2
#1457
b01011100 2
#1459
b01011101 2
#1461
b01011110 2
#1463
b01011111 2
#1465
b01100000 2
#1467
b01100001 2
#1469
b01100010 2
#1471
b01100011 2
#1473
b01100100 2
#1475
b01100101 2
#1477
b01100110 2
#1479
b01100111 2
#1481
b01101000 2
#1483
b01101001 2
#1485
b01101010 2
#1487
b01101011 2
#1489
b01101100 2
#1491
b01101101 2
#1493
b01101110 2
#1495
b01101111 2
#1497
b01110000 2
#1499
b01110001 2
#1501
b01110010 2
#1503
b01110011 2
#1505
b01110100 2
#1507
b01110101 2
#1509
b01110110 2
#1511
b01110111 2
#1513
b01111000 2
#1515
b01111001 2
#1517
b01111010 2
#1519
b01111011 2
#1521
b01111100 2
#1523
b01111101 2
#1525
b01111110 2
#1527
b01111111 2
#1529
b10000000 2
#1531
b10000001 2
#1533
b10000010 2
#1535
b10000011 2
#1537
b10000100 2
#1539
b10000101 2
#1541
b10000110 2
#1543
b10000111 2
#1545
b10001000 2
#1547
b10001001 2
#1549
b10001010 2
#1551
b10001011 2
#1553
b10001100 2
#1555
b10001101 2
#1557
b10001110 2
#1559
b10001111 2
#1561
b10010000 2
#1563
b10010001 2
#1565
b10010010 2
#1567
b10010011 2
#1569
b10010100 2
#1571
b10010101 2
#1573
b10010110 2
#1575
b10010111 2
#1577
b10011000 2
#1579
b10011001 2
#1581
b10011010 2
#1583
b10011011 2
#1585
b10011100 2
#1587
b10011101 2
#1589
b10011110 2
#1591
b10011111 2
#1593
b10100000 2
#1595
b10100001 2
#1597
b10100010 2
#1599
b10100011 2
#1601
b10100100 2
#1603
b10100101 2
#1605
b10100110 2
#1607
b10100111 2
#1609
b10101000 2
#1611
b10101001 2
#1613
b10101010 2
#1615
b10101011 2
#1617
b10101100 2
#1619
b10101101 2
#1621
b10101110 2
#1623
b10101111 2
#1625
b10110000 2
#1627
b10110001 2
#1629
b10110010 2
#1631
b10110011 2
#1633
b10110100 2
#1635
b10110101 2
#1637
b10110110 2
#1639
b10110111 2
#1641
b10111000 2
#1643
b10111001 2
#1645
b10111010 2
#1647
b10111011 2
#1649
b10111100 2
#1651
b10111101 2
#1653
b10111110 2
#1655
b10111111 2
#1657
b11000000 2
#1659
b11000001 2
#1661
b11000010 2
#1663
b11000011 2
#1665
b11000100 2
#1667
b11000101 2
#1669
b11000110 2
#1671
b11000111 2
#1673
b11001000 2
#1675
b11001001 2
#1677
b11001010 2
#1679
b11001011 2
#1681
b11001100 2
#1683
b11001101 2
#1685
b11001110 2
#1687
b11001111 2
#1689
b11010000 2
#1691
b11010001 2
#1693
b11010010 2
#1695
b11010011 2
#1697
b11010100 2
#1699
b11010101 2
#1701
b11010110 2
#1703
b11010111 2
#1705
b11011000 2
#1707
b11011001 2
#1709
b11011010 2
#1711
b11011011 2
#1713
b11011100 2
#1715
b11011101 2
#1717
b11011110 2
#1719
b11011111 2
#1721
b11100000 2
#1723
b11100001 2
#1725
b11100010 2
#1727
b11100011 2
#1729
b11100100 2
#1731
b11100101 2
#1733
b11100110 2
#1735
b11100111 2
#1737
b11101000 2
#1739
b11101001 2
#1741
b11101010 2
#1743
b11101011 2
#1745
b11101100 2
#1747
b11101101 2
#1749
b11101110 2
#1751
b11101111 2
#1753
b11110000 2
#1755
b11110001 2
#1757
b11110010 2
#1759
b11110011 2
#1761
b11110100 2
#1763
b11110101 2
#1765
b11110110 2
#1767
b11110111 2
#1769
b11111000 2
#1771
b11111001 2
#1773
b11111010 2
#1775
b11111011 2
#1777
b11111100 2
#1779
b11111101 2
#1781
b11111110 2
#1783
b11111111 2
#1785
b00000000 2
#1787
b00000001 2
#1789
b00000010 2
#1791
b00000011 2
#1793
b00000100 2
#1795
b00000101 2
#1797
b00000110 2
#1799
b00000111 2
#1801
b00001000 2
#1803
b00001001 2
#1805
b00001010 2
#1807
b00001011 2
#1809
b00001100 2
#1811
b00001101 2
#1813
b00001110 2
#1815
b00001111 2
#1817
b00010000 2
#1819
b00010001 2
#1821
b00010010 2
#1823
b00010011 2
#1825
b00010100 2
#1827
b00010101 2
#1829
b00010110 2
#1831
b00010111 2
#1833
b00011000 2
#1835
b00011001 2
#1837
b00011010 2
#1839
b00011011 2
#1841
b00011100 2
#1843
b00011101 2
#1845
b00011110 2
#1847
b00011111 2
#1849
b00100000 2
#1851
b00100001 2
#1853
b00100010 2
#1855
b00100011 2
#1857
b00100100 2
#1859
b00100101 2
#1861
b00100110 2
#1863
b00100111 2
#1865
b00101000 2
#1867
b00101001 2
#1869
b00101010 2
#1871
b00101011 2
#1873
b00101100 2
#1875
b00101101 2
#1877
b00101110 2
#1879
b00101111 2
#1881
b00110000 2
#1883
b00110001 2
#1885
b00110010 2
#1887
b00110011 2
#1889
b00110100 2
#1891
b00110101 2
#1893
b00110110 2
#1895
b00110111 2
#1897
b00111000 2
#1899
b00111001 2
#1901
b00111010 2
#1903
b00111011 2
#1905
b00111100 2
#1907
b00111101 2
#1909
b00111110 2
#1911
b00111111 2
#1913
b01000000 2
#1915
b01000001 2
#1917
b01000010 2
#1919
b01000011 2
#1921
b01000100 2
#1923
b01000101 2
#1925
b01000110 2
#1927
b01000111 2
#1929
b01001000 2
#1931
b01001001 2
#1933
b01001010 2
#1935
b01001011 2
#1937
b01001100 2
#1939
b01001101 2
#1941
b01001110 2
#1943
b01001111 2
#1945
b01010000 2
#1947
b01010001 2
#1949
b01010010 2
#1951
b01010011 2
#1953
b01010100 2
#1955
b01010101 2
#1957
b01010110 2
#1959
b01010111 2
#1961
b01011000 2
#1963
b01011001 2
#1965
b01011010 2
#1967
b01011011 2
#1969
b01011100 2
#1971
b01011101 2
#1973
b01011110 2
#1975
b01011111 2
#1977
b01100000 2
#1979
b01100001 2
#1981
b01100010 2
#1983
b01100011 2
#1985
b01100100 2
#1987
b01100101 2
#1989
b01100110 2
#1991
b01100111 2
#1993
b01101000 2
#1995
b01101001 2
#1997
b01101010 2
#1999
b01101011 2
#2001
b01101100 2
#2003
b01101101 2
#2005
b01101110 2
#2007
b01101111 2
#2009
b01110000 2
#2011
b01110001 2
#2013
b01110010 2
#2015
b01110011 2
#2017
b01110100 2
#2019
b01110101 2
#2021
b01110110 2
#2023
b01110111 2
#2025
b01111000 2
#2027
b01111001 2
#2029
b01111010 2
#2031
b01111011 2
#2033
b01111100 2
#2035
b01111101 2
#2037
b01111110 2
#2039
b01111111 2
#2041
b10000000 2
#2043
b10000001 2
#2045
b10000010 2
#2047
b10000011 2
#2049
b10000100 2
#2051
b10000101 2
#2053
b10000110 2
#2055
b10000111 2
#2057
b10001000 2
#2059
b10001001 2
#2061
b10001010 2
#2063
b10001011 2
#2065
b10001100 2
#2067
b10001101 2
#2069
b10001110 2
#2071
b10001111 2
#2073
b10010000 2
#2075
b10010001 2
#2077
b10010010 2
#2079
b10010011 2
#2081
b10010100 2
#2083
b10010101 2
#2085
b10010110 2
#2087
b10010111 2
#2089
b10011000 2
#2091
b10011001 2
#2093
b10011010 2
#2095
b10011011 2
#2097
b10011100 2
#2099
b10011101 2
#2101
b10011110 2
#2103
b10011111 2
#2105
b10100000 2
#2107
b10100001 2
#2109
b10100010 2
#2111
b10100011 2
#2113
b10100100 2
#2115
b10100101 2
#2117
b10100110 2
#2119
b10100111 2
#2121
b10101000 2
#2123
b10101001 2
#2125
b10101010 2
#2127
b10101011 2
#2129
b10101100 2
#2131
b10101101 2
#2133
b10101110 2
#2135
b10101111 2
#2137
b10110000 2
#2139
b10110001 2
#2141
b10110010 2
#2143
b10110011 2
#2145
b10110100 2
#2147
b10110101 2
#2149
b10110110 2
#2151
b10110111 2
#2153
b10111000 2
#2155
b10111001 2
#2157
b10111010 2
#2159
b10111011 2
#2161
b10111100 2
#2163
b10111101 2
#2165
b10111110 2
#2167
b10111111 2
#2169
b11000000 2
#2171
b11000001 2
#2173
b11000010 2
#2175
b11000011 2
#2177
b11000100 2
#2179
b11000101 2
#2181
b11000110 2
#2183
b11000111 2
#2185
b11001000 2
#2187
b11001001 2
#2189
b11001010 2
#2191
b11001011 2
#2193
b11001100 2
#2195
b11001101 2
#2197
b11001110 2
#2199
b11001111 2
#2201
b11010000 2
#2203
b11010001 2
#2205
b11010010 2
#2207
b11010011 2
#2209
b11010100 2
#2211
b11010101 2
#2213
b11010110 2
#2215
b11010111 2
#2217
b11011000 2
#2219
b11011001 2
#2221
b11011010 2
#2223
b11011011 2
#2225
b11011100 2
#2227
b11011101 2
#2229
b11011110 2
#2231
b11011111 2
#2233
b11100000 2
#2235
b11100001 2
#2237
b11100010 2
#2239
b11100011 2
#2241
b11100100 2
#2243
b11100101 2
#2245
b11100110 2
#2247
b11100111 2
#2249
b11101000 2
#2251
b11101001 2
#2253
b11101010 2
#2255
b11101011 2
#2257
b11101100 2
#2259
b11101101 2
#2261
b11101110 2
#2263
b11101111 2
#2265
b11110000 2
#2267
b11110001 2
#2269
b11110010 2
#2271
b11110011 2
#2273
b11110100 2
#2275
b11110101 2
#2277
b11110110 2
#2279
b11110111 2
#2281
b11111000 2
#2283
b11111001 2
#2285
b11111010 2
#2287
b11111011 2
#2289
b11111100 2
#2291
b11111101 2
#2293
b11111110 2
#2295
b11111111 2
#2297
b00000000 2
#2299
b00000001 2
#2301
b00000010 2
#2303
b00000011 2
#2305
b00000100 2
#2307
b00000101 2
#2309
b00000110 2
#2311
b00000111 2
#2313
b00001000 2
#2315
b00001001 2
#2317
b00001010 2
#2319
b00001011 2
#2321
b00001100 2
#2323
b00001101 2
#2325
b00001110 2
#2327
b00001111 2
#2329
b00010000 2
#2331
b00010001 2
#2333
b00010010 2
#2335
b00010011 2
#2337
b00010100 2
#2339
b00010101 2
#2341
b00010110 2
#2343
b00010111 2
#2345
b00011000 2
#2347
b00011001 2
#2349
b00011010 2
#2351
b00011011 2
#2353
b00011100 2
#2355
b00011101 2
#2357
b00011110 2
#2359
b00011111 2
#2361
b00100000 2
#2363
b00100001 2
#2365
b00100010 2
#2367
b00100011 2
#2369
b00100100 2
#2371
b00100101 2
#2373
b00100110 2
#2375
b00100111 2
#2377
b00101000 2
#2379
b00101001 2
#2381
b00101010 2
#2383
b00101011 2
#2385
b00101100 2
#2387
b00101101 2
#2389
b00101110 2
#2391
b00101111 2
#2393
b00110000 2
#2395
b00110001 2
#2397
b00110010 2
#2399
b00110011 2
#2401
b00110100 2
#2403
b00110101 2
#2405
b00110110 2
#2407
b00110111 2
#2409
b00111000 2
#2411
b00111001 2
#2413
b00111010 2
#2415
b00111011 2
#2417
b00111100 2
#2419
b00111101 2
#2421
b00111110 2
#2423
b00111111 2
#2425
b01000000 2
#2427
b01000001 2
#2429
b01000010 2
#2431
b01000011 2
#2433
b01000100 2
#2435
b01000101 2
#2437
b01000110 2
#2439
b01000111 2
#2441
b01001000 2
#2443
b01001001 2
#2445
b01001010 2
#2447
b01001011 2
#2449
b01001100 2
#2451
b01001101 2
#2453
b01001110 2
#2455
b01001111 2
#2457
b01010000 2
#2459
b01010001 2
#2461
b01010010 2
#2463
b01010011 2
#2465
b01010100 2
#2467
b01010101 2
#2469
b01010110 2
#2471
b01010111 2
#2473
b01011000 2
#2475
b01011001 2
#2477
b01011010 2
#2479
b01011011 2
#2481
b01011100 2
#2483
b01011101 2
#2485
b01011110 2
#2487
b01011111 2
#2489
b01100000 2
#2491
b01100001 2
#2493
b01100010 2
#2495
b01100011 2
#2497
b01100100 2
#2499
b01100101 2
#2501
b01100110 2
#2503
b01100111 2
#2505
b01101000 2
#2507
b01101001 2
#2509
b01101010 2
#2511
b01101011 2
#2513
b01101100 2
#2515
b01101101 2
#2517
b01101110 2
#2519
b01101111 2
#2521
b01110000 2
#2523
b01110001 2
#2525
b01110010 2
#2527
b01110011 2
#2529
b01110100 2
#2531
b01110101 2
#2533
b01110110 2
#2535
b01110111 2
#2537
b01111000 2
#2539
b01111001 2
#2541
b01111010 2
#2543
b01111011 2
#2545
b01111100 2
#2547
b01111101 2
#2549
b01111110 2
#2551
b01111111 2
#2553
b10000000 2
#2555
b10000001 2
#2557
b10000010 2
#2559
b10000011 2
#2561
b10000100 2
#2563
b10000101 2
#2565
b10000110 2
#2567
b10000111 2
#2569
b10001000 2
#2571
b10001001 2
#2573
b10001010 2
#2575
b10001011 2
#2577
b10001100 2
#2579
b10001101 2
#2581
b10001110 2
#2583
b10001111 2
#2585
b10010000 2
#2587
b10010001 2
#2589
b10010010 2
#2591
b10010011 2
#2593
b10010100 2
#2595
b10010101 2
#2597
b10010110 2
#2599
b10010111 2
#2601
b10011000 2
#2603
b10011001 2
#2605
b10011010 2
#2607
b10011011 2
#2609
b10011100 2
#2611
b10011101 2
#2613
b10011110 2
#2615
b10011111 2
#2617
b10100000 2
#2619
b10100001 2
#2621
b10100010 2
#2623
b10100011 2
#2625
b10100100 2
#2627
b10100101 2
#2629
b10100110 2
#2631
b10100111 2
#2633
b10101000 2
#2635
b10101001 2
#2637
b10101010 2
#2639
b10101011 2
#2641
b10101100 2
#2643
b10101101 2
#2645
b10101110 2
#2647
b10101111 2
#2649
b10110000 2
#2651
b10110001 2
#2653
b10110010 2
#2655
b10110011 2
#2657
b10110100 2
#2659
b10110101 2
#2661
b10110110 2
#2663
b10110111 2
#2665
b10111000 2
#2667
b10111001 2
#2669
b10111010 2
#2671
b10111011 2
#2673
b10111100 2
#2675
b10111101 2
#2677
b10111110 2
#2679
b10111111 2
#2681
b11000000 2
#2683
b11000001 2
#2685
b11000010 2
#2687
b11000011 2
#2689
b11000100 2
#2691
b11000101 2
#2693
b11000110 2
#2695
b11000111 2
#2697
b11001000 2
#2699
b11001001 2
#2701
b11001010 2
#2703
b11001011 2
#2705
b11001100 2
#2707
b11001101 2
#2709
b11001110 2
#2711
b11001111 2
#2713
b11010000 2
#2715
b11010001 2
#2717
b11010010 2
#2719
b11010011 2
#2721
b11010100 2
#2723
b11010101 2
#2725
b11010110 2
#2727
b11010111 2
#2729
b11011000 2
#2731
b11011001 2
#2733
b11011010 2
#2735
b11011011 2
#2737
b11011100 2
#2739
b11011101 2
#2741
b11011110 2
#2743
b11011111 2
#2745
b11100000 2
#2747
b11100001 2
#2749
b11100010 2
#2751
b11100011 2
#2753
b11100100 2
#2755
b11100101 2
#2757
b11100110 2
#2759
b11100111 2
#2761
b11101000 2
#2763
b11101001 2
#2765
b11101010 2
#2767
b11101011 2
#2769
b11101100 2
#2771
b11101101 2
#2773
b11101110 2
#2775
b11101111 2
#2777
b11110000 2
#2779
b11110001 2
#2781
b11110010 2
#2783
b11110011 2
#2785
b11110100 2
#2787
b11110101 2
#2789
b11110110 2
#2791
b11110111 2
#2793
b11111000 2
#2795
b11111001 2
#2797
b11111010 2
#2799
b11111011 2
#2801
b11111100 2
#2803
b11111101 2
#2805
b11111110 2
#2807
b11111111 2
#2809
b00000000 2
#2811
b00000001 2
#2813
b00000010 2
#2815
b00000011 2
#2817
b00000100 2
#2819
b00000101 2
#2821
b00000110 2
#2823
b00000111 2
#2825
b00001000 2
#2827
b00001001 2
#2829
b00001010 2
#2831
b00001011 2
#2833
b00001100 2
#2835
b00001101 2
#2837
b00001110 2
#2839
b00001111 2
#2841
b00010000 2
#2843
b00010001 2
#2845
b00010010 2
#2847
b00010011 2
#2849
b00010100 2
#2851
b00010101 2
#2853
b00010110 2
#2855
b00010111 2
#2857
b00011000 2
#2859
b00011001 2
#2861
b00011010 2
#2863
b00011011 2
#2865
b00011100 2
#2867
b00011101 2
#2869
b00011110 2
#2871
b00011111 2
#2873
b00100000 2
#2875
b00100001 2
#2877
b00100010 2
#2879
b00100011 2
#2881
b00100100 2
#2883
b00100101 2
#2885
b00100110 2
#2887
b00100111 2
#2889
b00101000 2
#2891
b00101001 2
#2893
b00101010 2
#2895
b00101011 2
#2897
b00101100 2
#2899
b00101101 2
#2901
b00101110 2
#2903
b00101111 2
#2905
b00110000 2
#2907
b00110001 2
#2909
b00110010 2
#2911
b00110011 2
#2913
b00110100 2
#2915
b00110101 2
#2917
b00110110 2
#2919
b00110111 2
#2921
b00111000 2
#2923
b00111001 2
#2925
b00111010 2
#2927
b00111011 2
#2929
b00111100 2
#2931
b00111101 2
#2933
b00111110 2
#2935
b00111111 2
#2937
b01000000 2
#2939
b01000001 2
#2941
b01000010 2
#2943
b01000011 2
#2945
b01000100 2
#2947
b01000101 2
#2949
b01000110 2
#2951
b01000111 2
#2953
b01001000 2
#2955
b01001001 2
#2957
b01001010 2
#2959
b01001011 2
#2961
b01001100 2
#2963
b01001101 2
#2965
b01001110 2
#2967
b01001111 2
#2969
b01010000 2
#2971
b01010001 2
#2973
b01010010 2
#2975
b01010011 2
#2977
b01010100 2
#2979
b01010101 2
#2981
b01010110 2
#2983
b01010111 2
#2985
b01011000 2
#2987
b01011001 2
#2989
b01011010 2
#2991
b01011011 2
#2993
b01011100 2
#2995
b01011101 2
#2997
b01011110 2
#2999
b01011111 2
#3001
b01100000 2
#3003
b01100001 2
#3005
b01100010 2
#3007
b01100011 2
#3009
b01100100 2
#3011
b01100101 2
#3013
b01100110 2
#3015
b01100111 2
#3017
b01101000 2
#3019
b01101001 2
#3021
b01101010 2
#3023
b01101011 2
#3025
b01101100 2
#3027
b01101101 2
#3029
b01101110 2
#3031
b01101111 2
#3033
b01110000 2
#3035
b01110001 2
#3037
b01110010 2
#3039
b01110011 2
#3041
b01110100 2
#3043
b01110101 2
#3045
b01110110 2
#3047
b01110111 2
#3049
b01111000 2
#3051
b01111001 2
